…
  data.frame(acc,sens,spec,ppv,auc)
}

For the binary categorical variable, I used the variable, gender, and made Male=1 and Female=0. For the explanatory variables, I used household_quintile and age.

#Getting Binary Variable by Discretizing a Numeric 
#From the variable of gender, making Male=1 and Female=0
library(tidyverse)
library(lmtest)
sex<-crime%>%mutate(y=ifelse(gender=="Male",1,0))
sex

## # A tibble: 438 x 12
##      age gender race  state cause armed household_quint… poverty_rate
##    <int> <chr>  <chr> <chr> <chr> <chr>            <int>        <dbl>
##  1    16 Male   Black AL    Guns… No                   3         14.1
##  2    27 Male   White LA    Guns… No                   1         28.8
##  3    26 Male   White WI    Guns… No                   3         14.6
##  4    25 Male   Hisp… CA    Guns… Fire…                3         11.7
##  5    29 Male   White OH    Guns… No                   4          1.9
##  6    29 Male   White AZ    Guns… No                   1         58  
##  7    22 Male   Hisp… CA    Guns… Fire…                4         17.2
##  8    35 Male   Hisp… CA    Guns… Non-…                4         12.2
##  9    44 Male   White TX    Guns… Fire…                1         37.7
## 10    31 Male   White MI    Guns… Other                2         18.4
## # … with 428 more rows, and 4 more variables: unemployment_rate <dbl>,
## #   college <dbl>, age_c <dbl>, y <dbl>
…
