Project 1
…
Tidying and Reshaping trump_approval_trend Dataset

For trump_approval_trend, I created new columns and put the observations within those columnds in descending order to help tidy and reshape the datasets.

#install.packages("tidyverse")
library(tidyverse)
#install.packages("dplyr")
library(dplyr)

#To Create New Column called "approval type"
trump_trend_1<-trump_approval_trend%>%pivot_longer(cols=c("approve_estimate","approve_high","approve_low"),names_to="approval type",values_to="approval ratings")
trump_trend_1

## # A tibble: 5,112 x 8
##    subgroup modeldate  disapprove_esti… disapprove_high disapprove_low
##    <fct>    <date>                <dbl>           <dbl>          <dbl>
##  1 Voters   2018-08-13             52.0            55.7           48.4
##  2 Voters   2018-08-13             52.0            55.7           48.4
##  3 Voters   2018-08-13             52.0            55.7           48.4
##  4 Adults   2018-08-13             52.9            57.1           48.8
##  5 Adults   2018-08-13             52.9            57.1           48.8
##  6 Adults   2018-08-13             52.9            57.1           48.8
##  7 All pol… 2018-08-13             52.5            56.5           48.5
##  8 All pol… 2018-08-13             52.5            56.5           48.5
##  9 All pol… 2018-08-13             52.5            56.5           48.5
## 10 Voters   2018-08-12             52.1            55.7           48.5
## # … with 5,102 more rows, and 3 more variables: timestamp <dttm>, `approval
## #   type` <chr>, `approval ratings` <dbl>

#To Create New Column called "disapproval type"
trump_trend_2<-trump_trend_1%>%select(-modeldate)%>%pivot_longer(c("disapprove_estimate","disapprove_high","disapprove_low"),names_to="disapproval type",values_to="disapproval ratings")
trump_trend_2

## # A tibble: 15,336 x 6
##    subgroup timestamp           `approval type` `approval ratin…
##    <fct>    <dttm>              <chr>                      <dbl>
##  1 Voters   2018-08-13 14:07:18 approve_estima…             43.7
##  2 Voters   2018-08-13 14:07:18 approve_estima…             43.7
##  3 Voters   2018-08-13 14:07:18 approve_estima…             43.7
##  4 Voters   2018-08-13 14:07:18 approve_high                47.9
##  5 Voters   2018-08-13 14:07:18 approve_high                47.9
##  6 Voters   2018-08-13 14:07:18 approve_high                47.9
##  7 Voters   2018-08-13 14:07:18 approve_low                 39.4
##  8 Voters   2018-08-13 14:07:18 approve_low                 39.4
##  9 Voters   2018-08-13 14:07:18 approve_low                 39.4
## 10 Adults   2018-08-13 14:07:00 approve_estima…             40.8
## # … with 15,326 more rows, and 2 more variables: `disapproval type` <chr>,
## #   `disapproval ratings` <dbl>

#To Arrange Columns in Descending Order
trump_trend_3<-trump_trend_2%>%arrange(desc(`approval type`))%>%arrange(desc(`disapproval type`))%>%arrange(desc(subgroup))
trump_trend_3

## # A tibble: 15,336 x 6
##    subgroup timestamp           `approval type` `approval ratin…
##    <fct>    <dttm>              <chr>                      <dbl>
##  1 Voters   2018-08-13 14:07:18 approve_low                 39.4
##  2 Voters   2018-08-13 10:50:20 approve_low                 39.3
##  3 Voters   2018-08-13 10:50:38 approve_low                 39.3
##  4 Voters   2018-08-10 16:24:31 approve_low                 39.3
##  5 Voters   2018-08-09 16:49:16 approve_low                 39.2
##  6 Voters   2018-08-08 17:41:11 approve_low                 38.9
##  7 Voters   2018-08-07 19:01:12 approve_low                 38.8
##  8 Voters   2018-08-06 13:21:17 approve_low                 38.7
##  9 Voters   2018-08-06 10:11:15 approve_low                 38.7
## 10 Voters   2018-08-06 10:11:32 approve_low                 38.7
## # … with 15,326 more rows, and 2 more variables: `disapproval type` <chr>,
## #   `disapproval ratings` <dbl>

Tidying and Reshaping trump_approval_poll Dataset

For trump_approval_poll, I made the already tidy dataset untidy just as the instructions said and then tidy that dataset. I then removed the unwanted variables to help make the dataset more organized.

#install.packages("tidyverse")
library(tidyverse)
#install.packages("dplyr")
library(dplyr)

#To Untidy the Already Tidy Dataset
trump_poll_1<-trump_approval_poll%>%pivot_wider(names_from="pollster",values_from="grade")
trump_poll_1

## # A tibble: 4,929 x 62
##    subgroup start_date end_date   sample_size population weight approve
##    <fct>    <date>     <date>           <int> <fct>       <dbl>   <dbl>
##  1 All pol… 2017-01-20 2017-01-22        1992 rv          0.946    46  
##  2 All pol… 2017-01-20 2017-01-22        1500 a           0.245    45  
##  3 All pol… 2017-01-21 2017-01-23        1500 a           0.227    45  
##  4 All pol… 2017-01-20 2017-01-24        1632 a           0.224    42.1
##  5 All pol… 2017-01-22 2017-01-24        1500 lv          0.220    57  
##  6 All pol… 2017-01-21 2017-01-25        1651 a           0.210    42.3
##  7 All pol… 2017-01-20 2017-01-25        1190 rv          1.64     36  
##  8 All pol… 2017-01-22 2017-01-24        1500 a           0.212    46  
##  9 All pol… 2017-01-23 2017-01-25        1500 a           0.200    46  
## 10 All pol… 2017-01-22 2017-01-26        1678 a           0.199    42.6
## # … with 4,919 more rows, and 55 more variables: disapprove <dbl>,
## #   adjusted_approve <dbl>, adjusted_disapprove <dbl>, multiversions <lgl>,
## #   tracking <lgl>, url <fct>, poll_id <int>, question_id <int>,
## #   created_date <date>, timestamp <dttm>, `Morning Consult` <ord>,
## #   Gallup <ord>, Ipsos <ord>, `Rasmussen Reports/Pulse Opinion
## #   Research` <ord>, `Quinnipiac University` <ord>, `Public Policy
## #   Polling` <ord>, YouGov <ord>, SurveyMonkey <ord>, `IBD/TIPP` <ord>,
## #   `CNN/Opinion Research Corp.` <ord>, `CBS News` <ord>, `Zogby Interactive/JZ
## #   Analytics` <ord>, `McLaughlin & Associates` <ord>, `Emerson College` <ord>,
…
trump_poll_2

## # A tibble: 221,805 x 19
##    subgroup start_date end_date   sample_size population weight approve
##    <fct>    <date>     <date>           <int> <fct>       <dbl>   <dbl>
##  1 All pol… 2017-01-20 2017-01-22        1992 rv          0.946      46
##  2 All pol… 2017-01-20 2017-01-22        1992 rv          0.946      46
##  3 All pol… 2017-01-20 2017-01-22        1992 rv          0.946      46
##  4 All pol… 2017-01-20 2017-01-22        1992 rv          0.946      46
##  5 All pol… 2017-01-20 2017-01-22        1992 rv          0.946      46
##  6 All pol… 2017-01-20 2017-01-22        1992 rv          0.946      46
##  7 All pol… 2017-01-20 2017-01-22        1992 rv          0.946      46
##  8 All pol… 2017-01-20 2017-01-22        1992 rv          0.946      46
##  9 All pol… 2017-01-20 2017-01-22        1992 rv          0.946      46
## 10 All pol… 2017-01-20 2017-01-22        1992 rv          0.946      46
## # … with 221,795 more rows, and 12 more variables: disapprove <dbl>,
## #   adjusted_approve <dbl>, adjusted_disapprove <dbl>, multiversions <lgl>,
## #   tracking <lgl>, url <fct>, poll_id <int>, question_id <int>,
## #   created_date <date>, timestamp <dttm>, pollster <chr>, grade <ord>

#To Remove Unwanted Variables
trump_poll_3<-trump_poll_2%>%select(-url,-start_date,-end_date,-poll_id,-question_id,-multiversions,-tracking,-weight,-pollster,-grade,-sample_size,-population,-created_date,-adjusted_approve,-adjusted_disapprove)
trump_poll_3

## # A tibble: 221,805 x 4
##    subgroup  approve disapprove timestamp          
##    <fct>       <dbl>      <dbl> <dttm>             
##  1 All polls      46         37 2018-08-13 14:06:42
##  2 All polls      46         37 2018-08-13 14:06:42
##  3 All polls      46         37 2018-08-13 14:06:42
##  4 All polls      46         37 2018-08-13 14:06:42
##  5 All polls      46         37 2018-08-13 14:06:42
##  6 All polls      46         37 2018-08-13 14:06:42
##  7 All polls      46         37 2018-08-13 14:06:42
##  8 All polls      46         37 2018-08-13 14:06:42
##  9 All polls      46         37 2018-08-13 14:06:42
## 10 All polls      46         37 2018-08-13 14:06:42
## # … with 221,795 more rows

Joining 2+ separate data sources into a single dataset

I performed all the joins here in order to figure out which ones were better suited. I determined that the inner_join would be the best because it shows the intersection of what was matched and was in common with both tables. I do not think that any case in each dataset was dropped.

#For joining, I dropped many variables from trump_approval_poll because I thought that there were too many variables that were not needed.

#Joining data sources into datasets:

#Left_join shows all rows from left, even without any matches in the right
left_join<-trump_approval_poll%>%left_join(trump_approval_trend, by = c("subgroup", "timestamp"))
left_join

## # A tibble: 4,929 x 26
##    subgroup start_date end_date   pollster grade sample_size population weight
##    <fct>    <date>     <date>     <fct>    <ord>       <int> <fct>       <dbl>
##  1 All pol… 2017-01-20 2017-01-22 Morning… B-           1992 rv          0.946
##  2 All pol… 2017-01-20 2017-01-22 Gallup   B            1500 a           0.245
##  3 All pol… 2017-01-21 2017-01-23 Gallup   B            1500 a           0.227
##  4 All pol… 2017-01-20 2017-01-24 Ipsos    B+           1632 a           0.224
##  5 All pol… 2017-01-22 2017-01-24 Rasmuss… C+           1500 lv          0.220
##  6 All pol… 2017-01-21 2017-01-25 Ipsos    B+           1651 a           0.210
##  7 All pol… 2017-01-20 2017-01-25 Quinnip… A-           1190 rv          1.64 
##  8 All pol… 2017-01-22 2017-01-24 Gallup   B            1500 a           0.212
##  9 All pol… 2017-01-23 2017-01-25 Gallup   B            1500 a           0.200
## 10 All pol… 2017-01-22 2017-01-26 Ipsos    B+           1678 a           0.199
## # … with 4,919 more rows, and 18 more variables: approve <dbl>,
## #   disapprove <dbl>, adjusted_approve <dbl>, adjusted_disapprove <dbl>,
## #   multiversions <lgl>, tracking <lgl>, url <fct>, poll_id <int>,
## #   question_id <int>, created_date <date>, timestamp <dttm>, modeldate <date>,
## #   approve_estimate <dbl>, approve_high <dbl>, approve_low <dbl>,
## #   disapprove_estimate <dbl>, disapprove_high <dbl>, disapprove_low <dbl>

left_join_2<-trump_poll_3%>%left_join(trump_trend_3, by = c("subgroup", "timestamp"))
left_join_2

## # A tibble: 1,996,245 x 8
##    subgroup approve disapprove timestamp           `approval type`
##    <fct>      <dbl>      <dbl> <dttm>              <chr>          
##  1 All pol…      46         37 2018-08-13 14:06:42 approve_low    
##  2 All pol…      46         37 2018-08-13 14:06:42 approve_high   
##  3 All pol…      46         37 2018-08-13 14:06:42 approve_estima…
##  4 All pol…      46         37 2018-08-13 14:06:42 approve_low    
##  5 All pol…      46         37 2018-08-13 14:06:42 approve_high   
##  6 All pol…      46         37 2018-08-13 14:06:42 approve_estima…
##  7 All pol…      46         37 2018-08-13 14:06:42 approve_low    
##  8 All pol…      46         37 2018-08-13 14:06:42 approve_high   
##  9 All pol…      46         37 2018-08-13 14:06:42 approve_estima…
## 10 All pol…      46         37 2018-08-13 14:06:42 approve_low    
## # … with 1,996,235 more rows, and 3 more variables: `approval ratings` <dbl>,
## #   `disapproval type` <chr>, `disapproval ratings` <dbl>

#Right_join shows all rows from right, even without any matches in the left
right_join<-trump_approval_poll%>%right_join(trump_approval_trend, by = c("subgroup", "timestamp"))
right_join

## # A tibble: 6,630 x 26
##    subgroup start_date end_date   pollster grade sample_size population weight
##    <fct>    <date>     <date>     <fct>    <ord>       <int> <fct>       <dbl>
##  1 Voters   2017-01-20 2017-01-22 Morning… B-           1992 rv          0.946
##  2 Voters   2017-01-20 2017-01-24 Ipsos    B+            509 lv          0.128
##  3 Voters   2017-01-22 2017-01-24 Rasmuss… C+           1500 lv          0.220
##  4 Voters   2017-01-20 2017-01-25 Quinnip… A-           1190 rv          1.64 
##  5 Voters   2017-01-21 2017-01-25 Ipsos    B+            516 lv          0.124
##  6 Voters   2017-01-23 2017-01-25 YouGov   B            2312 rv          1.53 
##  7 Voters   2017-01-23 2017-01-24 Public … B            1043 rv          1.17 
##  8 Voters   2017-01-23 2017-01-25 Rasmuss… C+           1500 lv          0.205
##  9 Voters   2017-01-22 2017-01-26 Ipsos    B+            552 lv          0.127
## 10 Voters   2017-01-24 2017-01-26 Rasmuss… C+           1500 lv          0.192
## # … with 6,620 more rows, and 18 more variables: approve <dbl>,
## #   disapprove <dbl>, adjusted_approve <dbl>, adjusted_disapprove <dbl>,
## #   multiversions <lgl>, tracking <lgl>, url <fct>, poll_id <int>,
## #   question_id <int>, created_date <date>, timestamp <dttm>, modeldate <date>,
## #   approve_estimate <dbl>, approve_high <dbl>, approve_low <dbl>,
## #   disapprove_estimate <dbl>, disapprove_high <dbl>, disapprove_low <dbl>

right_join_2<-trump_poll_3%>%right_join(trump_trend_3, by = c("subgroup", "timestamp"))
right_join_2

## # A tibble: 2,011,554 x 8
##    subgroup approve disapprove timestamp           `approval type`
##    <fct>      <dbl>      <dbl> <dttm>              <chr>          
##  1 Voters        46         37 2018-08-13 14:07:18 approve_low    
##  2 Voters        46         37 2018-08-13 14:07:18 approve_low    
##  3 Voters        46         37 2018-08-13 14:07:18 approve_low    
##  4 Voters        46         37 2018-08-13 14:07:18 approve_low    
##  5 Voters        46         37 2018-08-13 14:07:18 approve_low    
##  6 Voters        46         37 2018-08-13 14:07:18 approve_low    
##  7 Voters        46         37 2018-08-13 14:07:18 approve_low    
##  8 Voters        46         37 2018-08-13 14:07:18 approve_low    
##  9 Voters        46         37 2018-08-13 14:07:18 approve_low    
## 10 Voters        46         37 2018-08-13 14:07:18 approve_low    
## # … with 2,011,544 more rows, and 3 more variables: `approval ratings` <dbl>,
## #   `disapproval type` <chr>, `disapproval ratings` <dbl>

#Note to self: For both full_join and inner_join: All row information is preserved. Order doesn't matter

#Inner_join shows rows when there is match in both tables. It shows intersection of what is in common
inner_join<-trump_approval_trend%>%inner_join(trump_approval_poll, by = c("subgroup", "timestamp"))
inner_join

## # A tibble: 4,929 x 26
##    subgroup modeldate  approve_estimate approve_high approve_low
##    <fct>    <date>                <dbl>        <dbl>       <dbl>
##  1 Voters   2018-08-13             43.7         47.9        39.4
##  2 Voters   2018-08-13             43.7         47.9        39.4
##  3 Voters   2018-08-13             43.7         47.9        39.4
##  4 Voters   2018-08-13             43.7         47.9        39.4
##  5 Voters   2018-08-13             43.7         47.9        39.4
##  6 Voters   2018-08-13             43.7         47.9        39.4
##  7 Voters   2018-08-13             43.7         47.9        39.4
##  8 Voters   2018-08-13             43.7         47.9        39.4
##  9 Voters   2018-08-13             43.7         47.9        39.4
## 10 Voters   2018-08-13             43.7         47.9        39.4
## # … with 4,919 more rows, and 21 more variables: disapprove_estimate <dbl>,
## #   disapprove_high <dbl>, disapprove_low <dbl>, timestamp <dttm>,
## #   start_date <date>, end_date <date>, pollster <fct>, grade <ord>,
## #   sample_size <int>, population <fct>, weight <dbl>, approve <dbl>,
## #   disapprove <dbl>, adjusted_approve <dbl>, adjusted_disapprove <dbl>,
## #   multiversions <lgl>, tracking <lgl>, url <fct>, poll_id <int>,
## #   question_id <int>, created_date <date>

inner_join_2<-trump_trend_3%>%inner_join(trump_poll_3, by = c("subgroup", "timestamp"))
inner_join_2

## # A tibble: 1,996,245 x 8
##    subgroup timestamp           `approval type` `approval ratin…
##    <fct>    <dttm>              <chr>                      <dbl>
##  1 Voters   2018-08-13 14:07:18 approve_low                 39.4
##  2 Voters   2018-08-13 14:07:18 approve_low                 39.4
##  3 Voters   2018-08-13 14:07:18 approve_low                 39.4
##  4 Voters   2018-08-13 14:07:18 approve_low                 39.4
##  5 Voters   2018-08-13 14:07:18 approve_low                 39.4
##  6 Voters   2018-08-13 14:07:18 approve_low                 39.4
##  7 Voters   2018-08-13 14:07:18 approve_low                 39.4
##  8 Voters   2018-08-13 14:07:18 approve_low                 39.4
##  9 Voters   2018-08-13 14:07:18 approve_low                 39.4
## 10 Voters   2018-08-13 14:07:18 approve_low                 39.4
## # … with 1,996,235 more rows, and 4 more variables: `disapproval type` <chr>,
## #   `disapproval ratings` <dbl>, approve <dbl>, disapprove <dbl>

#Full_join combines results of both outer left and right
full_join<-trump_approval_trend%>%full_join(trump_approval_poll, by = c("subgroup", "timestamp"))
full_join

## # A tibble: 6,630 x 26
##    subgroup modeldate  approve_estimate approve_high approve_low
##    <fct>    <date>                <dbl>        <dbl>       <dbl>
##  1 Voters   2018-08-13             43.7         47.9        39.4
##  2 Voters   2018-08-13             43.7         47.9        39.4
##  3 Voters   2018-08-13             43.7         47.9        39.4
##  4 Voters   2018-08-13             43.7         47.9        39.4
##  5 Voters   2018-08-13             43.7         47.9        39.4
##  6 Voters   2018-08-13             43.7         47.9        39.4
##  7 Voters   2018-08-13             43.7         47.9        39.4
##  8 Voters   2018-08-13             43.7         47.9        39.4
##  9 Voters   2018-08-13             43.7         47.9        39.4
## 10 Voters   2018-08-13             43.7         47.9        39.4
## # … with 6,620 more rows, and 21 more variables: disapprove_estimate <dbl>,
## #   disapprove_high <dbl>, disapprove_low <dbl>, timestamp <dttm>,
## #   start_date <date>, end_date <date>, pollster <fct>, grade <ord>,
## #   sample_size <int>, population <fct>, weight <dbl>, approve <dbl>,
## #   disapprove <dbl>, adjusted_approve <dbl>, adjusted_disapprove <dbl>,
## #   multiversions <lgl>, tracking <lgl>, url <fct>, poll_id <int>,
## #   question_id <int>, created_date <date>

full_join_2<-trump_trend_3%>%full_join(trump_poll_3, by = c("subgroup", "timestamp"))
full_join_2

## # A tibble: 2,011,554 x 8
##    subgroup timestamp           `approval type` `approval ratin…
##    <fct>    <dttm>              <chr>                      <dbl>
##  1 Voters   2018-08-13 14:07:18 approve_low                 39.4
##  2 Voters   2018-08-13 14:07:18 approve_low                 39.4
##  3 Voters   2018-08-13 14:07:18 approve_low                 39.4
##  4 Voters   2018-08-13 14:07:18 approve_low                 39.4
##  5 Voters   2018-08-13 14:07:18 approve_low                 39.4
##  6 Voters   2018-08-13 14:07:18 approve_low                 39.4
##  7 Voters   2018-08-13 14:07:18 approve_low                 39.4
##  8 Voters   2018-08-13 14:07:18 approve_low                 39.4
##  9 Voters   2018-08-13 14:07:18 approve_low                 39.4
## 10 Voters   2018-08-13 14:07:18 approve_low                 39.4
## # … with 2,011,544 more rows, and 4 more variables: `disapproval type` <chr>,
## #   `disapproval ratings` <dbl>, approve <dbl>, disapprove <dbl>
…
